InternalClassType: Comment
BackgroundColor: 14483420
ChangePathCtrl:
Color: 0
ConstructorCtrl:
Cont: ""
Coordinate3D: [-2,2,0]
CreateIn3D: true
DestructorCtrl:
DragDropCtrl:
Font: 1
InitCtrl:
MoveInFrameCtrl:
MoveToFolderCtrl:
Name: Comment
OpenCtrl:
PlausibilityCtrl:
RenameCtrl:
SaveAsRichedit: false
Text: "[{\"page\":1,\"pages\":65,\"per_page\":1,\"total\":65,\"sourceid\":\"2\",\"lastupdated\":\"2025-12-04\"},[{\"indicator\":{\"id\":\"SP.POP.0014.TO\",\"value\":\"Population ages 0-14, total\"},\"country\":{\"id\":\"1W\",\"value\":\"World\"},\"countryiso3code\":\"WLD\",\"date\":\"2024\",\"value\":2013224063,\"unit\":\"\",\"obs_status\":\"\",\"decimal\":0}]]"
Transparent: false
UUID: 7c3e53c3-5dda-4f0d-aedf-24f21be127d1
$SequenceNumber: 3
3D:
 AniRotationAxis: [0,0,-1]
 AniRotationCenter: [0,0,0]
 ExcludeFromShowContentOfLocation: true
 GraphicGroupNames: ["default"]
 LockedGraphicGroups: []
 Mirror: [false,false,false]
 ObstacleForWorker: "(None)"
 Poses:
 Rotation: [0,0,0,-1]
 Scale: [1,1,1]
 SelfAnimations:
 SynchronizedJoints: true
 VisibleGraphicGroups: ["default"]
